{
    "id": "d351fcf8-5d6c-48d4-8bf6-a56fe11e62d6",
    "version": "1.0.2",
    "name": "shallot",
    "keywords": [
        "Time Series",
        "Shapelets"
    ],
    "source": {
        "name": "Distil",
        "contact": "mailto:nklabs@newknowledge.com",
        "uris": [
            "https://github.com/NewKnowledge/TimeSeries-D3M-Wrappers"
        ]
    },
    "installation": [
        {
            "type": "PIP",
            "package": "cython",
            "version": "0.29.7"
        },
        {
            "type": "PIP",
            "package_uri": "git+https://github.com/NewKnowledge/TimeSeries-D3M-Wrappers.git@61e3ce5f48b7b63aa25ecdd8b796a3188dcb3437#egg=TimeSeriesD3MWrappers"
        }
    ],
    "python_path": "d3m.primitives.time_series_classification.shapelet_learning.Shallot",
    "algorithm_types": [
        "STOCHASTIC_GRADIENT_DESCENT"
    ],
    "primitive_family": "TIME_SERIES_CLASSIFICATION",
    "schema": "https://metadata.datadrivendiscovery.org/schemas/v0/primitive.json",
    "original_python_path": "TimeSeriesD3MWrappers.Shallot.Shallot",
    "primitive_code": {
        "class_type_arguments": {
            "Inputs": "d3m.container.dataset.Dataset",
            "Outputs": "d3m.container.dataset.Dataset",
            "Params": "TimeSeriesD3MWrappers.Shallot.Params",
            "Hyperparams": "TimeSeriesD3MWrappers.Shallot.Hyperparams"
        },
        "interfaces_version": "2019.6.7",
        "interfaces": [
            "base.PrimitiveBase"
        ],
        "hyperparams": {
            "num_shapelets": {
                "type": "d3m.metadata.hyperparams.Uniform",
                "default": 0.15,
                "structural_type": "float",
                "semantic_types": [
                    "https://metadata.datadrivendiscovery.org/types/TuningParameter"
                ],
                "description": "number of shapelets, expressed as fraction of length of time series",
                "lower": 0.0,
                "upper": 1.0,
                "lower_inclusive": true,
                "upper_inclusive": false
            },
            "min_shapelet_length": {
                "type": "d3m.metadata.hyperparams.Uniform",
                "default": 0.1,
                "structural_type": "float",
                "semantic_types": [
                    "https://metadata.datadrivendiscovery.org/types/TuningParameter"
                ],
                "description": "base shapelet length, expressed as fraction of length of time series",
                "lower": 0.0,
                "upper": 1.0,
                "lower_inclusive": true,
                "upper_inclusive": false
            },
            "num_shapelet_lengths": {
                "type": "d3m.metadata.hyperparams.UniformInt",
                "default": 2,
                "structural_type": "int",
                "semantic_types": [
                    "https://metadata.datadrivendiscovery.org/types/TuningParameter"
                ],
                "description": "number of different shapelet lengths",
                "lower": 1,
                "upper": 3,
                "lower_inclusive": true,
                "upper_inclusive": true
            },
            "epochs": {
                "type": "d3m.metadata.hyperparams.UniformInt",
                "default": 200,
                "structural_type": "int",
                "semantic_types": [
                    "https://metadata.datadrivendiscovery.org/types/TuningParameter"
                ],
                "description": "number of training epochs",
                "lower": 1,
                "upper": 9223372036854775807,
                "lower_inclusive": true,
                "upper_inclusive": false
            },
            "batch_size": {
                "type": "d3m.metadata.hyperparams.UniformInt",
                "default": 256,
                "structural_type": "int",
                "semantic_types": [
                    "https://metadata.datadrivendiscovery.org/types/TuningParameter"
                ],
                "description": "number of training epochs",
                "lower": 1,
                "upper": 256,
                "lower_inclusive": true,
                "upper_inclusive": true
            },
            "learning_rate": {
                "type": "d3m.metadata.hyperparams.Uniform",
                "default": 0.01,
                "structural_type": "float",
                "semantic_types": [
                    "https://metadata.datadrivendiscovery.org/types/TuningParameter"
                ],
                "description": "number of different shapelet lengths",
                "lower": 0.0,
                "upper": 1.0,
                "lower_inclusive": true,
                "upper_inclusive": false
            },
            "weight_regularizer": {
                "type": "d3m.metadata.hyperparams.Uniform",
                "default": 0.01,
                "structural_type": "float",
                "semantic_types": [
                    "https://metadata.datadrivendiscovery.org/types/TuningParameter"
                ],
                "description": "number of different shapelet lengths",
                "lower": 0.0,
                "upper": 1.0,
                "lower_inclusive": true,
                "upper_inclusive": true
            },
            "long_format": {
                "type": "d3m.metadata.hyperparams.UniformBool",
                "default": false,
                "structural_type": "bool",
                "semantic_types": [
                    "https://metadata.datadrivendiscovery.org/types/ControlParameter"
                ],
                "description": "whether the input dataset is already formatted in long format or not"
            }
        },
        "arguments": {
            "hyperparams": {
                "type": "TimeSeriesD3MWrappers.Shallot.Hyperparams",
                "kind": "RUNTIME"
            },
            "random_seed": {
                "type": "int",
                "kind": "RUNTIME",
                "default": 0
            },
            "timeout": {
                "type": "typing.Union[NoneType, float]",
                "kind": "RUNTIME",
                "default": null
            },
            "iterations": {
                "type": "typing.Union[NoneType, int]",
                "kind": "RUNTIME",
                "default": null
            },
            "produce_methods": {
                "type": "typing.Sequence[str]",
                "kind": "RUNTIME"
            },
            "inputs": {
                "type": "d3m.container.dataset.Dataset",
                "kind": "PIPELINE"
            },
            "outputs": {
                "type": "d3m.container.dataset.Dataset",
                "kind": "PIPELINE"
            },
            "params": {
                "type": "TimeSeriesD3MWrappers.Shallot.Params",
                "kind": "RUNTIME"
            }
        },
        "class_methods": {
            "can_accept": {
                "arguments": {
                    "method_name": {
                        "type": "str"
                    },
                    "arguments": {
                        "type": "typing.Dict[str, typing.Union[d3m.metadata.base.Metadata, type]]"
                    },
                    "hyperparams": {
                        "type": "TimeSeriesD3MWrappers.Shallot.Hyperparams"
                    }
                },
                "returns": "typing.Union[NoneType, d3m.metadata.base.DataMetadata]",
                "description": "Returns a metadata object describing the output of a call of ``method_name`` method under\n``hyperparams`` with primitive arguments ``arguments``, if such arguments can be accepted by the method.\nOtherwise it returns ``None`` or raises an exception.\n\nDefault implementation checks structural types of ``arguments`` expected arguments' types\nand ignores ``hyperparams``.\n\nBy (re)implementing this method, a primitive can fine-tune which arguments it accepts\nfor its methods which goes beyond just structural type checking. For example, a primitive might\noperate only on images, so it can accept numpy arrays, but only those with semantic type\ncorresponding to an image. Or it might check dimensions of an array to assure it operates\non square matrix.\n\nPrimitive arguments are a superset of method arguments. This method receives primitive arguments and\nnot just method arguments so that it is possible to implement it without a state between calls\nto ``can_accept`` for multiple methods. For example, a call to ``fit`` could during normal execution\ninfluences what a later ``produce`` call outputs. But during ``can_accept`` call we can directly have\naccess to arguments which would have been given to ``fit`` to produce metadata of the ``produce`` call.\n\nNot all primitive arguments have to be provided, only those used by ``fit``, ``set_training_data``,\nand produce methods, and those used by the ``method_name`` method itself.\n\nParameters\n----------\nmethod_name : str\n    Name of the method which would be called.\narguments : Dict[str, Union[Metadata, type]]\n    A mapping between argument names and their metadata objects (for pipeline arguments) or types (for other).\nhyperparams : Hyperparams\n    Hyper-parameters under which the method would be called during regular primitive execution.\n\nReturns\n-------\nDataMetadata\n    Metadata object of the method call result, or ``None`` if arguments are not accepted\n    by the method."
            }
        },
        "instance_methods": {
            "__init__": {
                "kind": "OTHER",
                "arguments": [
                    "hyperparams",
                    "random_seed"
                ],
                "returns": "NoneType"
            },
            "fit": {
                "kind": "OTHER",
                "arguments": [
                    "timeout",
                    "iterations"
                ],
                "returns": "d3m.primitive_interfaces.base.CallResult[NoneType]",
                "description": "fits Shapelet classifier using training data from set_training_data and hyperparameters\n\nParameters\n----------\ntimeout : float\n    A maximum time this primitive should be fitting during this method call, in seconds.\niterations : int\n    How many of internal iterations should the primitive do.\n\nReturns\n-------\nCallResult[None]\n    A ``CallResult`` with ``None`` value."
            },
            "fit_multi_produce": {
                "kind": "OTHER",
                "arguments": [
                    "produce_methods",
                    "inputs",
                    "outputs",
                    "timeout",
                    "iterations"
                ],
                "returns": "d3m.primitive_interfaces.base.MultiCallResult",
                "description": "A method calling ``fit`` and after that multiple produce methods at once.\n\nThis method allows primitive author to implement an optimized version of both fitting\nand producing a primitive on same data.\n\nIf any additional method arguments are added to primitive's ``set_training_data`` method\nor produce method(s), or removed from them, they have to be added to or removed from this\nmethod as well. This method should accept an union of all arguments accepted by primitive's\n``set_training_data`` method and produce method(s) and then use them accordingly when\ncomputing results.\n\nThe default implementation of this method just calls first ``set_training_data`` method,\n``fit`` method, and all produce methods listed in ``produce_methods`` in order and is\npotentially inefficient.\n\nParameters\n----------\nproduce_methods : Sequence[str]\n    A list of names of produce methods to call.\ninputs : Inputs\n    The inputs given to ``set_training_data`` and all produce methods.\noutputs : Outputs\n    The outputs given to ``set_training_data``.\ntimeout : float\n    A maximum time this primitive should take to both fit the primitive and produce outputs\n    for all produce methods listed in ``produce_methods`` argument, in seconds.\niterations : int\n    How many of internal iterations should the primitive do for both fitting and producing\n    outputs of all produce methods.\n\nReturns\n-------\nMultiCallResult\n    A dict of values for each produce method wrapped inside ``MultiCallResult``."
            },
            "get_params": {
                "kind": "OTHER",
                "arguments": [],
                "returns": "TimeSeriesD3MWrappers.Shallot.Params",
                "description": "Returns parameters of this primitive.\n\nParameters are all parameters of the primitive which can potentially change during a life-time of\na primitive. Parameters which cannot are passed through constructor.\n\nParameters should include all data which is necessary to create a new instance of this primitive\nbehaving exactly the same as this instance, when the new instance is created by passing the same\nparameters to the class constructor and calling ``set_params``.\n\nNo other arguments to the method are allowed (except for private arguments).\n\nReturns\n-------\nParams\n    An instance of parameters."
            },
            "multi_produce": {
                "kind": "OTHER",
                "arguments": [
                    "produce_methods",
                    "inputs",
                    "timeout",
                    "iterations"
                ],
                "returns": "d3m.primitive_interfaces.base.MultiCallResult",
                "description": "A method calling multiple produce methods at once.\n\nWhen a primitive has multiple produce methods it is common that they might compute the\nsame internal results for same inputs but return different representations of those results.\nIf caller is interested in multiple of those representations, calling multiple produce\nmethods might lead to recomputing same internal results multiple times. To address this,\nthis method allows primitive author to implement an optimized version which computes\ninternal results only once for multiple calls of produce methods, but return those different\nrepresentations.\n\nIf any additional method arguments are added to primitive's produce method(s), they have\nto be added to this method as well. This method should accept an union of all arguments\naccepted by primitive's produce method(s) and then use them accordingly when computing\nresults.\n\nThe default implementation of this method just calls all produce methods listed in\n``produce_methods`` in order and is potentially inefficient.\n\nIf primitive should have been fitted before calling this method, but it has not been,\nprimitive should raise a ``PrimitiveNotFittedError`` exception.\n\nParameters\n----------\nproduce_methods : Sequence[str]\n    A list of names of produce methods to call.\ninputs : Inputs\n    The inputs given to all produce methods.\ntimeout : float\n    A maximum time this primitive should take to produce outputs for all produce methods\n    listed in ``produce_methods`` argument, in seconds.\niterations : int\n    How many of internal iterations should the primitive do.\n\nReturns\n-------\nMultiCallResult\n    A dict of values for each produce method wrapped inside ``MultiCallResult``."
            },
            "produce": {
                "kind": "PRODUCE",
                "arguments": [
                    "inputs",
                    "timeout",
                    "iterations"
                ],
                "returns": "d3m.primitive_interfaces.base.CallResult[d3m.container.dataset.Dataset]",
                "singleton": false,
                "inputs_across_samples": [],
                "description": "Produce primitive's classifications for new time series data\n\nParameters\n----------\ninputs : numpy ndarray of size (number_of_time_series, time_series_length, dimension) containing new time series\n\nReturns\n-------\nOutputs\n    The output is a numpy ndarray containing a predicted class for each of the input time series"
            },
            "set_params": {
                "kind": "OTHER",
                "arguments": [
                    "params"
                ],
                "returns": "NoneType",
                "description": "Sets parameters of this primitive.\n\nParameters are all parameters of the primitive which can potentially change during a life-time of\na primitive. Parameters which cannot are passed through constructor.\n\nNo other arguments to the method are allowed (except for private arguments).\n\nParameters\n----------\nparams : Params\n    An instance of parameters."
            },
            "set_training_data": {
                "kind": "OTHER",
                "arguments": [
                    "inputs",
                    "outputs"
                ],
                "returns": "NoneType",
                "description": "Sets primitive's training data\n\nParameters\n----------\ninputs: numpy ndarray of size (number_of_time_series, time_series_length, dimension) containing training time series\n\noutputs: numpy ndarray of size (number_time_series,) containing classes of training time series"
            }
        },
        "class_attributes": {
            "logger": "logging.Logger",
            "metadata": "d3m.metadata.base.PrimitiveMetadata"
        },
        "instance_attributes": {
            "hyperparams": "d3m.metadata.hyperparams.Hyperparams",
            "random_seed": "int",
            "docker_containers": "typing.Dict[str, d3m.primitive_interfaces.base.DockerContainer]",
            "volumes": "typing.Dict[str, str]",
            "temporary_directory": "typing.Union[NoneType, str]"
        },
        "params": {}
    },
    "structural_type": "TimeSeriesD3MWrappers.Shallot.Shallot",
    "description": "Primitive that applies the shapelet classification algorithm to time series data. The shapelet\nclassification algorithm was introduced by Grabocka et al. in\nhttps://www.ismll.uni-hildesheim.de/pub/pdfs/grabocka2014e-kdd.pdf and learns discriminative subsequences\n(\"shapes\") that can be used to classify series.\n\nTraining inputs: D3M dataset with features and labels, and D3M indices\nOutputs: D3M dataset with predicted labels and D3M indices\n\nAttributes\n----------\nmetadata : PrimitiveMetadata\n    Primitive's metadata. Available as a class attribute.\nlogger : Logger\n    Primitive's logger. Available as a class attribute.\nhyperparams : Hyperparams\n    Hyperparams passed to the constructor.\nrandom_seed : int\n    Random seed passed to the constructor.\ndocker_containers : Dict[str, DockerContainer]\n    A dict mapping Docker image keys from primitive's metadata to (named) tuples containing\n    container's address under which the container is accessible by the primitive, and a\n    dict mapping exposed ports to ports on that address.\nvolumes : Dict[str, str]\n    A dict mapping volume keys from primitive's metadata to file and directory paths\n    where downloaded and extracted files are available to the primitive.\ntemporary_directory : str\n    An absolute path to a temporary directory a primitive can use to store any files\n    for the duration of the current pipeline run phase. Directory is automatically\n    cleaned up after the current pipeline run phase finishes.",
    "digest": "e75dbd4a2c9915b6a99dbb0dc5fefb0ca4247846fdd51920cb556a9c87762ef5"
}
