{
    "id":"5a9752e8-1601-486f-ad61-560f9cbf771a",
    "schema":"https://metadata.datadrivendiscovery.org/schemas/v0/pipeline.json",
    "created":"2019-11-25T18:55:34.915427Z",
    "inputs":[
        {
            "name":"input dataset"
        }
    ],
    "outputs":[
        {
            "data":"steps.7.produce",
            "name":"predictions of input dataset"
        }
    ],
    "steps":[
        {
            "type":"PRIMITIVE",
            "primitive":{
                "id":"f31f8c1f-d1c5-43e5-a4b2-2ae4a761ef2e",
                "version":"0.2.0",
                "python_path":"d3m.primitives.data_transformation.denormalize.Common",
                "name":"Denormalize datasets",
                "digest":"77f4ad3affd17b2b1053aebdbb172911797eec89a0eccbb8d07093c7ebfeb393"
            },
            "arguments":{
                "inputs":{
                    "type":"CONTAINER",
                    "data":"inputs.0"
                }
            },
            "outputs":[
                {
                    "id":"produce"
                }
            ]
        },
        {
            "type":"PRIMITIVE",
            "primitive":{
                "id":"4b42ce1e-9b98-4a25-b68e-fad13311eb65",
                "version":"0.3.0",
                "python_path":"d3m.primitives.data_transformation.dataset_to_dataframe.Common",
                "name":"Extract a DataFrame from a Dataset",
                "digest":"d276cbf84a7208b600ff3e67cc8503120fb969c8e6a0d88f1a1983f95e038e7b"
            },
            "arguments":{
                "inputs":{
                    "type":"CONTAINER",
                    "data":"steps.0.produce"
                }
            },
            "outputs":[
                {
                    "id":"produce"
                }
            ]
        },
        {
            "type":"PRIMITIVE",
            "primitive":{
                "id":"4503a4c6-42f7-45a1-a1d4-ed69699cf5e1",
                "version":"0.3.0",
                "python_path":"d3m.primitives.data_transformation.extract_columns_by_semantic_types.Common",
                "name":"Extracts columns by semantic type",
                "digest":"bf6c1d0253ef856b6780ca40861634d0662b400c44acad35de0712891e886986"
            },
            "arguments":{
                "inputs":{
                    "type":"CONTAINER",
                    "data":"steps.1.produce"
                }
            },
            "outputs":[
                {
                    "id":"produce"
                }
            ],
            "hyperparams":{
                "semantic_types":{
                    "type":"VALUE",
                    "data":[
                        "https://metadata.datadrivendiscovery.org/types/TrueTarget"
                    ]
                }
            }
        },
        {
            "type":"PRIMITIVE",
            "primitive":{
                "id":"7ddf2fd8-2f7f-4e53-96a7-0d9f5aeecf93",
                "version":"1.5.3",
                "python_path":"d3m.primitives.data_transformation.to_numeric.DSBOX",
                "name":"ISI DSBox To Numeric DataFrame",
                "digest":"b1aeaf11edc88bd62142ba3fc8287c08bd1b8767ce18da906f4186baeed4d09e"
            },
            "arguments":{
                "inputs":{
                    "type":"CONTAINER",
                    "data":"steps.2.produce"
                }
            },
            "outputs":[
                {
                    "id":"produce"
                }
            ],
            "hyperparams":{
                "drop_non_numeric_columns":{
                    "type":"VALUE",
                    "data":false
                }
            }
        },
        {
            "type":"PRIMITIVE",
            "primitive":{
                "id":"dsbox-featurizer-image-dataframe-to-tensor",
                "version":"1.5.3",
                "python_path":"d3m.primitives.data_preprocessing.dataframe_to_tensor.DSBOX",
                "name":"DSBox Image Featurizer dataframe to tensor transformer",
                "digest":"17bf2a30fc4757f5479a087a7762899f89a3dad09a3827667d6760de20d2d84d"
            },
            "arguments":{
                "inputs":{
                    "type":"CONTAINER",
                    "data":"steps.1.produce"
                }
            },
            "outputs":[
                {
                    "id":"produce"
                }
            ]
        },
        {
            "type":"PRIMITIVE",
            "primitive":{
                "id":"dsbox-featurizer-image-resnet50",
                "version":"1.5.3",
                "python_path":"d3m.primitives.feature_extraction.resnet50_image_feature.DSBOX",
                "name":"DSBox Image Featurizer RestNet50",
                "digest":"8cc868c153945b7b9ccb44f3357179880493bfb778eb659de8c5fda75f4aa0f5"
            },
            "arguments":{
                "inputs":{
                    "type":"CONTAINER",
                    "data":"steps.4.produce"
                }
            },
            "outputs":[
                {
                    "id":"produce"
                }
            ],
            "hyperparams":{
                "generate_metadata":{
                    "type":"VALUE",
                    "data":true
                }
            }
        },
        {
            "type":"PRIMITIVE",
            "primitive":{
                "id":"2fb28cd1-5de6-3663-a2dc-09c786fba7f4",
                "version":"2019.6.7",
                "python_path":"d3m.primitives.feature_extraction.pca.SKlearn",
                "name":"sklearn.decomposition.pca.PCA",
                "digest":"d2531843fc34a3be87ad771f55aa11363d9531e4ad0ef631397a399be18a2fce"
            },
            "arguments":{
                "inputs":{
                    "type":"CONTAINER",
                    "data":"steps.5.produce"
                }
            },
            "outputs":[
                {
                    "id":"produce"
                }
            ],
            "hyperparams":{
                "add_index_columns":{
                    "type":"VALUE",
                    "data":true
                },
                "use_semantic_types":{
                    "type":"VALUE",
                    "data":true
                }
            }
        },
        {
            "type":"PRIMITIVE",
            "primitive":{
                "id":"f0fd7a62-09b5-3abc-93bb-f5f999f7cc80",
                "version":"2019.6.7",
                "python_path":"d3m.primitives.regression.random_forest.SKlearn",
                "name":"sklearn.ensemble.forest.RandomForestRegressor",
                "digest":"57a99fa10b07a356f67b5a596ba68534d6209904196809f1f8427c6310f3db64"
            },
            "arguments":{
                "inputs":{
                    "type":"CONTAINER",
                    "data":"steps.6.produce"
                },
                "outputs":{
                    "type":"CONTAINER",
                    "data":"steps.3.produce"
                }
            },
            "outputs":[
                {
                    "id":"produce"
                }
            ],
            "hyperparams":{
                "add_index_columns":{
                    "type":"VALUE",
                    "data":true
                }
            }
        }
    ],
    "name":"TA1ImageProcessingRegressionTemplate:140430681366464",
    "description":"",
    "digest":"3b422524fa870252accd671efcd7317650931ccbf3b160e53d62abb4fa26a862"
}