{
    "id":"6f96a33b-fc92-48b6-876d-fecca7863468",
    "schema":"https://metadata.datadrivendiscovery.org/schemas/v0/pipeline.json",
    "created":"2020-02-12T00:38:26.246737Z",
    "inputs":[
        {
            "name":"input dataset"
        }
    ],
    "outputs":[
        {
            "data":"steps.19.produce",
            "name":"predictions of input dataset"
        }
    ],
    "steps":[
        {
            "type":"PRIMITIVE",
            "primitive":{
                "id":"dsbox-featurizer-do-nothing-dataset-version",
                "version":"1.5.3",
                "python_path":"d3m.primitives.data_preprocessing.do_nothing_for_dataset.DSBOX",
                "name":"DSBox do-nothing primitive dataset version",
                "digest":"bcce798b83f80f79433ebc34aef7841c8478dc57d2c8533ddc1a468cb8d20d6a"
            },
            "arguments":{
                "inputs":{
                    "type":"CONTAINER",
                    "data":"inputs.0"
                }
            },
            "outputs":[
                {
                    "id":"produce"
                }
            ]
        },
        {
            "type":"PRIMITIVE",
            "primitive":{
                "id":"f31f8c1f-d1c5-43e5-a4b2-2ae4a761ef2e",
                "version":"0.2.0",
                "python_path":"d3m.primitives.data_transformation.denormalize.Common",
                "name":"Denormalize datasets",
                "digest":"6c1cc604302d7418145f405efe5ae124755cab6da2b66cb53240b74e2b140a1e"
            },
            "arguments":{
                "inputs":{
                    "type":"CONTAINER",
                    "data":"steps.0.produce"
                }
            },
            "outputs":[
                {
                    "id":"produce"
                }
            ]
        },
        {
            "type":"PRIMITIVE",
            "primitive":{
                "id":"4b42ce1e-9b98-4a25-b68e-fad13311eb65",
                "version":"0.3.0",
                "python_path":"d3m.primitives.data_transformation.dataset_to_dataframe.Common",
                "name":"Extract a DataFrame from a Dataset",
                "digest":"990784f527a78250fcab70af9714314490e91f9a5916eb38834d74e8c38f435b"
            },
            "arguments":{
                "inputs":{
                    "type":"CONTAINER",
                    "data":"steps.1.produce"
                }
            },
            "outputs":[
                {
                    "id":"produce"
                }
            ]
        },
        {
            "type":"PRIMITIVE",
            "primitive":{
                "id":"e193afa1-b45e-4d29-918f-5bb1fa3b88a7",
                "version":"0.2.0",
                "python_path":"d3m.primitives.schema_discovery.profiler.Common",
                "name":"Determine missing semantic types for columns automatically",
                "digest":"812f8751faff8fa1fd614e29448206db50074486bae0fc127badaf8b04e127de"
            },
            "arguments":{
                "inputs":{
                    "type":"CONTAINER",
                    "data":"steps.2.produce"
                }
            },
            "outputs":[
                {
                    "id":"produce"
                }
            ]
        },
        {
            "type":"PRIMITIVE",
            "primitive":{
                "id":"4503a4c6-42f7-45a1-a1d4-ed69699cf5e1",
                "version":"0.4.0",
                "python_path":"d3m.primitives.data_transformation.extract_columns_by_semantic_types.Common",
                "name":"Extracts columns by semantic type",
                "digest":"591d3ee40b266bda04fa345aeea7b56d81db182fb144cde164e02be019a05f10"
            },
            "arguments":{
                "inputs":{
                    "type":"CONTAINER",
                    "data":"steps.3.produce"
                }
            },
            "outputs":[
                {
                    "id":"produce"
                }
            ],
            "hyperparams":{
                "semantic_types":{
                    "type":"VALUE",
                    "data":[
                        "https://metadata.datadrivendiscovery.org/types/PrimaryKey",
                        "https://metadata.datadrivendiscovery.org/types/Attribute"
                    ]
                }
            }
        },
        {
            "type":"PRIMITIVE",
            "primitive":{
                "id":"b2612849-39e4-33ce-bfda-24f3e2cb1e93",
                "version":"1.5.3",
                "python_path":"d3m.primitives.schema_discovery.profiler.DSBOX",
                "name":"DSBox Profiler",
                "digest":"cf5b31c698c83f5dc2adf4a4d3ebbf483c38418ecadd5d94c435b10654b13f91"
            },
            "arguments":{
                "inputs":{
                    "type":"CONTAINER",
                    "data":"steps.4.produce"
                }
            },
            "outputs":[
                {
                    "id":"produce"
                }
            ]
        },
        {
            "type":"PRIMITIVE",
            "primitive":{
                "id":"dsbox-cleaning-featurizer",
                "version":"1.5.3",
                "python_path":"d3m.primitives.data_cleaning.cleaning_featurizer.DSBOX",
                "name":"DSBox Cleaning Featurizer",
                "digest":"241f74973ef07b1e06a3658f6856bc8d516cb3a69771e5a6493363f770ec4cde"
            },
            "arguments":{
                "inputs":{
                    "type":"CONTAINER",
                    "data":"steps.5.produce"
                }
            },
            "outputs":[
                {
                    "id":"produce"
                }
            ]
        },
        {
            "type":"PRIMITIVE",
            "primitive":{
                "id":"18f0bb42-6350-3753-8f2d-d1c3da70f279",
                "version":"1.5.3",
                "python_path":"d3m.primitives.data_preprocessing.encoder.DSBOX",
                "name":"ISI DSBox Data Encoder",
                "digest":"0c8e8fd5fdbbcbe6c9a32cf8d6cd8c8fa9811f5a9609fce79e746cf304754899"
            },
            "arguments":{
                "inputs":{
                    "type":"CONTAINER",
                    "data":"steps.6.produce"
                }
            },
            "outputs":[
                {
                    "id":"produce"
                }
            ]
        },
        {
            "type":"PRIMITIVE",
            "primitive":{
                "id":"7ddf2fd8-2f7f-4e53-96a7-0d9f5aeecf93",
                "version":"1.5.3",
                "python_path":"d3m.primitives.data_transformation.to_numeric.DSBOX",
                "name":"ISI DSBox To Numeric DataFrame",
                "digest":"7f92c7ad8efa978ae1dcda8f3c7fb9cdea0f269d08c329557f3ffcb82193f73b"
            },
            "arguments":{
                "inputs":{
                    "type":"CONTAINER",
                    "data":"steps.6.produce"
                }
            },
            "outputs":[
                {
                    "id":"produce"
                }
            ]
        },
        {
            "type":"PRIMITIVE",
            "primitive":{
                "id":"7894b699-61e9-3a50-ac9f-9bc510466667",
                "version":"1.5.3",
                "python_path":"d3m.primitives.data_preprocessing.mean_imputation.DSBOX",
                "name":"DSBox Mean Imputer",
                "digest":"50a3d0b5a384ae79380c1a8bdd99454aaeb4fef87e6a027ced1713287115ca84"
            },
            "arguments":{
                "inputs":{
                    "type":"CONTAINER",
                    "data":"steps.8.produce"
                }
            },
            "outputs":[
                {
                    "id":"produce"
                }
            ]
        },
        {
            "type":"PRIMITIVE",
            "primitive":{
                "id":"dsbox-multi-table-feature-scaler",
                "version":"1.5.3",
                "python_path":"d3m.primitives.normalization.iqr_scaler.DSBOX",
                "name":"DSBox feature scaler",
                "digest":"a79b06393fe424079dbbd561d40977fb5d883687a1cf603fc541cfd5e0cb94c0"
            },
            "arguments":{
                "inputs":{
                    "type":"CONTAINER",
                    "data":"steps.9.produce"
                }
            },
            "outputs":[
                {
                    "id":"produce"
                }
            ]
        },
        {
            "type":"PRIMITIVE",
            "primitive":{
                "id":"dsbox-featurizer-do-nothing",
                "version":"1.5.3",
                "python_path":"d3m.primitives.data_preprocessing.do_nothing.DSBOX",
                "name":"DSBox do-nothing primitive",
                "digest":"f83fa69a9ed0f50803f1090b4d32e2584151889d5109f02efe99c23da08cc1eb"
            },
            "arguments":{
                "inputs":{
                    "type":"CONTAINER",
                    "data":"steps.10.produce"
                }
            },
            "outputs":[
                {
                    "id":"produce"
                }
            ]
        },
        {
            "type":"PRIMITIVE",
            "primitive":{
                "id":"4503a4c6-42f7-45a1-a1d4-ed69699cf5e1",
                "version":"0.4.0",
                "python_path":"d3m.primitives.data_transformation.extract_columns_by_semantic_types.Common",
                "name":"Extracts columns by semantic type",
                "digest":"591d3ee40b266bda04fa345aeea7b56d81db182fb144cde164e02be019a05f10"
            },
            "arguments":{
                "inputs":{
                    "type":"CONTAINER",
                    "data":"steps.3.produce"
                }
            },
            "outputs":[
                {
                    "id":"produce"
                }
            ],
            "hyperparams":{
                "semantic_types":{
                    "type":"VALUE",
                    "data":[
                        "https://metadata.datadrivendiscovery.org/types/TrueTarget"
                    ]
                }
            }
        },
        {
            "type":"PRIMITIVE",
            "primitive":{
                "id":"7ddf2fd8-2f7f-4e53-96a7-0d9f5aeecf93",
                "version":"1.5.3",
                "python_path":"d3m.primitives.data_transformation.to_numeric.DSBOX",
                "name":"ISI DSBox To Numeric DataFrame",
                "digest":"7f92c7ad8efa978ae1dcda8f3c7fb9cdea0f269d08c329557f3ffcb82193f73b"
            },
            "arguments":{
                "inputs":{
                    "type":"CONTAINER",
                    "data":"steps.12.produce"
                }
            },
            "outputs":[
                {
                    "id":"produce"
                }
            ],
            "hyperparams":{
                "drop_non_numeric_columns":{
                    "type":"VALUE",
                    "data":false
                }
            }
        },
        {
            "type":"PRIMITIVE",
            "primitive":{
                "id":"09a4cffa-a59f-30ac-b78f-101c35b3f7c6",
                "version":"2019.11.13",
                "python_path":"d3m.primitives.feature_selection.select_fwe.SKlearn",
                "name":"sklearn.feature_selection.univariate_selection.SelectFwe",
                "digest":"a2fc030d6ac630dee8dd9d6ce30203731f74826c478f32507952175f4d4dbeb2"
            },
            "arguments":{
                "inputs":{
                    "type":"CONTAINER",
                    "data":"steps.11.produce"
                },
                "outputs":{
                    "type":"CONTAINER",
                    "data":"steps.13.produce"
                }
            },
            "outputs":[
                {
                    "id":"produce"
                }
            ],
            "hyperparams":{
                "add_index_columns":{
                    "type":"VALUE",
                    "data":true
                },
                "alpha":{
                    "type":"VALUE",
                    "data":0.0001
                },
                "return_result":{
                    "type":"VALUE",
                    "data":"new"
                },
                "use_semantic_types":{
                    "type":"VALUE",
                    "data":true
                }
            }
        },
        {
            "type":"PRIMITIVE",
            "primitive":{
                "id":"a323b46a-6c15-373e-91b4-20efbd65402f",
                "version":"2019.11.13",
                "python_path":"d3m.primitives.classification.linear_discriminant_analysis.SKlearn",
                "name":"sklearn.discriminant_analysis.LinearDiscriminantAnalysis",
                "digest":"e6d6eda6c3772151e7a5fd0dda878c46ddb9e8743979ecb345c1aeedfed98b31"
            },
            "arguments":{
                "inputs":{
                    "type":"CONTAINER",
                    "data":"steps.14.produce"
                },
                "outputs":{
                    "type":"CONTAINER",
                    "data":"steps.13.produce"
                }
            },
            "outputs":[
                {
                    "id":"produce"
                }
            ],
            "hyperparams":{
                "add_index_columns":{
                    "type":"VALUE",
                    "data":true
                },
                "return_result":{
                    "type":"VALUE",
                    "data":"new"
                },
                "use_semantic_types":{
                    "type":"VALUE",
                    "data":true
                }
            }
        },
        {
            "type":"PRIMITIVE",
            "primitive":{
                "id":"90e7b335-5af0-35ad-932c-9c771fe84693",
                "version":"2019.11.13",
                "python_path":"d3m.primitives.classification.nearest_centroid.SKlearn",
                "name":"sklearn.neighbors.nearest_centroid.NearestCentroid",
                "digest":"bf80fda9ccdcea59d73af41914cb6d918f000312ebe1dd90b04a5bce15894c5a"
            },
            "arguments":{
                "inputs":{
                    "type":"CONTAINER",
                    "data":"steps.14.produce"
                },
                "outputs":{
                    "type":"CONTAINER",
                    "data":"steps.13.produce"
                }
            },
            "outputs":[
                {
                    "id":"produce"
                }
            ],
            "hyperparams":{
                "add_index_columns":{
                    "type":"VALUE",
                    "data":true
                },
                "return_result":{
                    "type":"VALUE",
                    "data":"new"
                },
                "use_semantic_types":{
                    "type":"VALUE",
                    "data":true
                }
            }
        },
        {
            "type":"PRIMITIVE",
            "primitive":{
                "id":"b9c81b40-8ed1-3b23-80cf-0d6fe6863962",
                "version":"2019.11.13",
                "python_path":"d3m.primitives.classification.logistic_regression.SKlearn",
                "name":"sklearn.linear_model.logistic.LogisticRegression",
                "digest":"39f6c25fff2fb011308408e85c7527345422a797648be66f9b29f67cde1e3770"
            },
            "arguments":{
                "inputs":{
                    "type":"CONTAINER",
                    "data":"steps.14.produce"
                },
                "outputs":{
                    "type":"CONTAINER",
                    "data":"steps.13.produce"
                }
            },
            "outputs":[
                {
                    "id":"produce"
                }
            ],
            "hyperparams":{
                "add_index_columns":{
                    "type":"VALUE",
                    "data":true
                },
                "return_result":{
                    "type":"VALUE",
                    "data":"new"
                },
                "use_semantic_types":{
                    "type":"VALUE",
                    "data":true
                }
            }
        },
        {
            "type":"PRIMITIVE",
            "primitive":{
                "id":"dsbox-vertical-concat",
                "version":"1.5.3",
                "python_path":"d3m.primitives.data_preprocessing.vertical_concatenate.DSBOX",
                "name":"DSBox vertically concat",
                "digest":"d5ef2b2a7ab346085694ed2b3ccec770f0f22a5e6bc2cec4f165d5fb4fd48f07"
            },
            "arguments":{
                "inputs":{
                    "type":"CONTAINER",
                    "data":[
                        "steps.15.produce",
                        "steps.16.produce",
                        "steps.17.produce"
                    ]
                }
            },
            "outputs":[
                {
                    "id":"produce"
                }
            ]
        },
        {
            "type":"PRIMITIVE",
            "primitive":{
                "id":"dsbox-ensemble-voting",
                "version":"1.5.3",
                "python_path":"d3m.primitives.classification.ensemble_voting.DSBOX",
                "name":"DSBox ensemble voting",
                "digest":"d3ec598fe8c7f1340476c90a6c3fc5d8164eb104bca2c5618860e1ba55c271b8"
            },
            "arguments":{
                "inputs":{
                    "type":"CONTAINER",
                    "data":"steps.18.produce"
                }
            },
            "outputs":[
                {
                    "id":"produce"
                }
            ]
        }
    ],
    "name":"default_classification_template:140613881088256",
    "description":"",
    "digest":"843b75a755afa105cc5c699a5b01399ad9bdfcd5d4c2e3bdc1b5c21cbd2f5a43"
}