{
    "id": "f4a4f6d5-01b7-447b-ba2f-2d725f4da103",
    "schema": "https://metadata.datadrivendiscovery.org/schemas/v0/pipeline.json",
    "created": "2020-10-13T16:54:33.026260Z",
    "inputs": [
        {
            "name": "inputs"
        }
    ],
    "outputs": [
        {
            "data": "steps.1.produce",
            "name": "output"
        }
    ],
    "steps": [
        {
            "type": "PRIMITIVE",
            "primitive": {
                "id": "4acc81e5-4b9c-443e-a72a-18dd9a7dcc3b",
                "version": "0.5.0",
                "python_path": "d3m.primitives.data_transformation.load_edgelist.DistilEdgeListLoader",
                "name": "Load edgelist into a parseable object"
            },
            "arguments": {
                "inputs": {
                    "type": "CONTAINER",
                    "data": "inputs.0"
                }
            },
            "outputs": [
                {
                    "id": "produce"
                },
                {
                    "id": "produce_target"
                }
            ]
        },
        {
            "type": "PRIMITIVE",
            "primitive": {
                "id": "0130828c-1ac0-47a9-a167-f05bae5a3146",
                "version": "0.5.0",
                "python_path": "d3m.primitives.vertex_nomination.vertex_nomination.DistilVertexNomination",
                "name": "VertexNomination"
            },
            "arguments": {
                "inputs": {
                    "type": "CONTAINER",
                    "data": "steps.0.produce"
                },
                "outputs": {
                    "type": "CONTAINER",
                    "data": "steps.0.produce_target"
                }
            },
            "outputs": [
                {
                    "id": "produce"
                }
            ],
            "hyperparams": {
                "metric": {
                    "type": "VALUE",
                    "data": "accuracy"
                }
            }
        }
    ],
    "digest": "5d4fbb16d19b56698105a7278dbd39cd47d58edf4d1118dace424a7b4ef56c6f"
}
