{
    "id": "18bd7df3-5eef-4d59-b5ed-b540a2c5abe8",
    "schema": "https://metadata.datadrivendiscovery.org/schemas/v0/pipeline.json",
    "created": "2020-06-09T23:58:37.161380Z",
    "inputs": [
        {
            "name": "inputs"
        }
    ],
    "outputs": [
        {
            "data": "steps.1.produce",
            "name": "output"
        }
    ],
    "steps": [
        {
            "type": "PRIMITIVE",
            "primitive": {
                "id": "79012210-2463-4f94-9da6-11bdc5a7e6c4",
                "version": "0.4.0",
                "python_path": "d3m.primitives.data_transformation.load_single_graph.DistilSingleGraphLoader",
                "name": "Load single graph and dataframe into a parseable object"
            },
            "arguments": {
                "inputs": {
                    "type": "CONTAINER",
                    "data": "inputs.0"
                }
            },
            "outputs": [
                {
                    "id": "produce"
                },
                {
                    "id": "produce_target"
                }
            ]
        },
        {
            "type": "PRIMITIVE",
            "primitive": {
                "id": "0130828c-1ac0-47a9-a167-f05bae5a3146",
                "version": "0.4.0",
                "python_path": "d3m.primitives.vertex_nomination.vertex_nomination.DistilVertexNomination",
                "name": "VertexNomination"
            },
            "arguments": {
                "inputs": {
                    "type": "CONTAINER",
                    "data": "steps.0.produce"
                },
                "outputs": {
                    "type": "CONTAINER",
                    "data": "steps.0.produce_target"
                }
            },
            "outputs": [
                {
                    "id": "produce"
                }
            ],
            "hyperparams": {
                "metric": {
                    "type": "VALUE",
                    "data": "accuracy"
                }
            }
        }
    ],
    "digest": "e1b0635689994d05595150051da7fbc36fab1cdba1d0652fa86abb82ecbac1d1"
}
