{
    "id": "1ad0a50a-c6db-4c1e-b0d4-d6c3e34df171",
    "schema": "https://metadata.datadrivendiscovery.org/schemas/v0/pipeline.json",
    "created": "2020-01-19T20:49:03.933706Z",
    "inputs": [
        {
            "name": "inputs"
        }
    ],
    "outputs": [
        {
            "data": "steps.11.produce",
            "name": "output"
        }
    ],
    "steps": [
        {
            "type": "PRIMITIVE",
            "primitive": {
                "id": "4b42ce1e-9b98-4a25-b68e-fad13311eb65",
                "version": "0.3.0",
                "python_path": "d3m.primitives.data_transformation.dataset_to_dataframe.Common",
                "name": "Extract a DataFrame from a Dataset",
                "digest": "422744651afd5995d029a227a1dd7b1696038816b7eb9601f37d661757812aee"
            },
            "arguments": {
                "inputs": {
                    "type": "CONTAINER",
                    "data": "inputs.0"
                }
            },
            "outputs": [
                {
                    "id": "produce"
                }
            ]
        },
        {
            "type": "PRIMITIVE",
            "primitive": {
                "id": "e193afa1-b45e-4d29-918f-5bb1fa3b88a7",
                "version": "0.2.0",
                "python_path": "d3m.primitives.schema_discovery.profiler.Common",
                "name": "Determine missing semantic types for columns automatically",
                "digest": "8b12a9aececdc5b7a4d5ef47cd04cda75592fd24f49922776b614d4bbeeb97f1"
            },
            "arguments": {
                "inputs": {
                    "type": "CONTAINER",
                    "data": "steps.0.produce"
                }
            },
            "outputs": [
                {
                    "id": "produce"
                }
            ]
        },
        {
            "type": "PRIMITIVE",
            "primitive": {
                "id": "d510cb7a-1782-4f51-b44c-58f0236e47c7",
                "version": "0.6.0",
                "python_path": "d3m.primitives.data_transformation.column_parser.Common",
                "name": "Parses strings into their types",
                "digest": "f1215fe3351a2e8bf495f9ed5ed50e88b30d78d4d7ebd9e13bb544e63a10994b"
            },
            "arguments": {
                "inputs": {
                    "type": "CONTAINER",
                    "data": "steps.1.produce"
                }
            },
            "outputs": [
                {
                    "id": "produce"
                }
            ]
        },
        {
            "type": "PRIMITIVE",
            "primitive": {
                "id": "d016df89-de62-3c53-87ed-c06bb6a23cde",
                "version": "2019.11.13",
                "python_path": "d3m.primitives.data_cleaning.imputer.SKlearn",
                "name": "sklearn.impute.SimpleImputer",
                "digest": "1fbe6321949de3f9bd1d93c6900cd5c3b3ee4b1a01506b89c69a776a9d27bf7a"
            },
            "arguments": {
                "inputs": {
                    "type": "CONTAINER",
                    "data": "steps.2.produce"
                }
            },
            "outputs": [
                {
                    "id": "produce"
                }
            ],
            "hyperparams": {
                "use_semantic_types": {
                    "type": "VALUE",
                    "data": true
                }
            }
        },
        {
            "type": "PRIMITIVE",
            "primitive": {
                "id": "4503a4c6-42f7-45a1-a1d4-ed69699cf5e1",
                "version": "0.3.0",
                "python_path": "d3m.primitives.data_transformation.extract_columns_by_semantic_types.Common",
                "name": "Extracts columns by semantic type",
                "digest": "30cceb9812b430d6550d54766b4f674b68b92531fc2ad63f56818ea002399c13"
            },
            "arguments": {
                "inputs": {
                    "type": "CONTAINER",
                    "data": "steps.3.produce"
                }
            },
            "outputs": [
                {
                    "id": "produce"
                }
            ],
            "hyperparams": {
                "semantic_types": {
                    "type": "VALUE",
                    "data": [
                        "https://metadata.datadrivendiscovery.org/types/Attribute"
                    ]
                }
            }
        },
        {
            "type": "PRIMITIVE",
            "primitive": {
                "id": "d38e2e28-9b18-4ce4-b07c-9d809cd8b915",
                "version": "0.2.1",
                "python_path": "d3m.primitives.data_transformation.encoder.DistilBinaryEncoder",
                "name": "Binary encoder",
                "digest": "70262ba50fa1539f7ae84da669444e7a42862b390b1fbbb70c4c37723c6b8512"
            },
            "arguments": {
                "inputs": {
                    "type": "CONTAINER",
                    "data": "steps.4.produce"
                }
            },
            "outputs": [
                {
                    "id": "produce"
                }
            ],
            "hyperparams": {
                "min_binary": {
                    "type": "VALUE",
                    "data": 2
                }
            }
        },
        {
            "type": "PRIMITIVE",
            "primitive": {
                "id": "4503a4c6-42f7-45a1-a1d4-ed69699cf5e1",
                "version": "0.3.0",
                "python_path": "d3m.primitives.data_transformation.extract_columns_by_semantic_types.Common",
                "name": "Extracts columns by semantic type",
                "digest": "30cceb9812b430d6550d54766b4f674b68b92531fc2ad63f56818ea002399c13"
            },
            "arguments": {
                "inputs": {
                    "type": "CONTAINER",
                    "data": "steps.2.produce"
                }
            },
            "outputs": [
                {
                    "id": "produce"
                }
            ],
            "hyperparams": {
                "semantic_types": {
                    "type": "VALUE",
                    "data": [
                        "https://metadata.datadrivendiscovery.org/types/TrueTarget"
                    ]
                }
            }
        },
        {
            "type": "PRIMITIVE",
            "primitive": {
                "id": "34f71b2e-17bb-488d-a2ba-b60b8c305539",
                "version": "0.1.0",
                "python_path": "d3m.primitives.data_transformation.dataframe_to_ndarray.Common",
                "name": "DataFrame to ndarray converter",
                "digest": "c4649e4f91abd660c436d87dc1e664b5fa197ec274d9781e31930bdd39b8ca7a"
            },
            "arguments": {
                "inputs": {
                    "type": "CONTAINER",
                    "data": "steps.6.produce"
                }
            },
            "outputs": [
                {
                    "id": "produce"
                }
            ]
        },
        {
            "type": "PRIMITIVE",
            "primitive": {
                "id": "34f71b2e-17bb-488d-a2ba-b60b8c305539",
                "version": "0.1.0",
                "python_path": "d3m.primitives.data_transformation.dataframe_to_ndarray.Common",
                "name": "DataFrame to ndarray converter",
                "digest": "c4649e4f91abd660c436d87dc1e664b5fa197ec274d9781e31930bdd39b8ca7a"
            },
            "arguments": {
                "inputs": {
                    "type": "CONTAINER",
                    "data": "steps.5.produce"
                }
            },
            "outputs": [
                {
                    "id": "produce"
                }
            ]
        },
        {
            "type": "PRIMITIVE",
            "primitive": {
                "id": "90d9eefc-2db3-4738-a0e7-72eedab2d93a",
                "version": "3.0.1",
                "python_path": "d3m.primitives.regression.rfm_precondition_ed_gaussian_krr.RFMPreconditionedGaussianKRR",
                "name": "RFM Preconditioned Gaussian Kernel Ridge Regression",
                "digest": "53e8d7d0b3d33aac96dd3eba4b7c0a58e1e53924f1e607e81838322717c6eaf8"
            },
            "arguments": {
                "inputs": {
                    "type": "CONTAINER",
                    "data": "steps.8.produce"
                },
                "outputs": {
                    "type": "CONTAINER",
                    "data": "steps.7.produce"
                }
            },
            "outputs": [
                {
                    "id": "produce"
                }
            ],
            "hyperparams": {
                "lparam": {
                    "type": "VALUE",
                    "data": 0.001
                },
                "sigma": {
                    "type": "VALUE",
                    "data": 977.23722
                }
            }
        },
        {
            "type": "PRIMITIVE",
            "primitive": {
                "id": "f5241b2e-64f7-44ad-9675-df3d08066437",
                "version": "0.1.0",
                "python_path": "d3m.primitives.data_transformation.ndarray_to_dataframe.Common",
                "name": "ndarray to Dataframe converter",
                "digest": "c8a285d89c4e88621c044289d29b43b7ea957aa21b6d6285a0e3953ae8e07e3c"
            },
            "arguments": {
                "inputs": {
                    "type": "CONTAINER",
                    "data": "steps.9.produce"
                }
            },
            "outputs": [
                {
                    "id": "produce"
                }
            ]
        },
        {
            "type": "PRIMITIVE",
            "primitive": {
                "id": "8d38b340-f83f-4877-baaa-162f8e551736",
                "version": "0.3.0",
                "python_path": "d3m.primitives.data_transformation.construct_predictions.Common",
                "name": "Construct pipeline predictions output",
                "digest": "2994d9885ddeb72f5a47a8fb04e27fe3f684adebf7c5dc27cb56392475dbb29c"
            },
            "arguments": {
                "inputs": {
                    "type": "CONTAINER",
                    "data": "steps.10.produce"
                },
                "reference": {
                    "type": "CONTAINER",
                    "data": "steps.1.produce"
                }
            },
            "outputs": [
                {
                    "id": "produce"
                }
            ]
        }
    ],
    "digest": "787edd149b13c74e610f878e47f3d4ed9349b21f0db0b1f0d942df17444a7a8d"
}