{
	"id": "7ad32ca6-afd9-49e6-b68b-4e771e466999",
	"schema": "https://metadata.datadrivendiscovery.org/schemas/v0/pipeline.json",
	"source": {
		"name": "Uchicago"
	},
	"created": "2018-02-28T09:42:27.443844Z",
	"context": "TESTING",
	"name": "Xg2 pipeline",
	"description": "Xg2 pipeline\n",
	"inputs": [
		{
			"name": "input dataset"
		}
	],
	"outputs": [
		{
			"name": "predictions",
			"data": "steps.1.produce"
		}
	],
	"steps": [
		{
			"type": "PRIMITIVE",
			"primitive": {
				"id": "4b42ce1e-9b98-4a25-b68e-fad13311eb65",
				"version": "0.3.0",
				"python_path": "d3m.primitives.data_transformation.dataset_to_dataframe.Common",
				"name": "Extract a DataFrame from a Dataset"
			},
			"arguments": {
				"inputs": {
					"type": "CONTAINER",
					"data": "inputs.0"
				}
			},
			"outputs": [
				{
					"id": "produce"
				}
			]
		},
		{
			"type": "PRIMITIVE",
			"primitive": {
				"id": "d989655c-a583-4bc3-94bc-cdd7b3ccb3aa",
				"version": "0.4.10",
				"python_path": "d3m.primitives.datasmash.d3m_XG2",
				"name": "datasmash.d3m_XG2"
			},
			"arguments": {
				"inputs": {
					"type": "CONTAINER",
					"data": "inputs.0"
				},
				"outputs": {
					"type": "CONTAINER",
					"data": "steps.0.produce"
				}
			},
			"outputs": [
				{
					"id": "produce"
				}
			]
		}
	]
}
