{
    "created": "2019-11-23T01:34:25.632029Z",
    "digest": "b79f910445314de35300e20c7c37999153a4c036f0a25fa5f67766dc0d8c03b7",
    "id": "b534ba8e-7c20-4452-b2c7-eca4f36e6817",
    "inputs": [
        {
            "name": "inputs"
        }
    ],
    "outputs": [
        {
            "data": "steps.7.produce",
            "name": "output predictions"
        }
    ],
    "schema": "https://metadata.datadrivendiscovery.org/schemas/v0/pipeline.json",
    "steps": [
        {
            "arguments": {
                "inputs": {
                    "data": "inputs.0",
                    "type": "CONTAINER"
                }
            },
            "outputs": [
                {
                    "id": "produce"
                }
            ],
            "primitive": {
                "digest": "bddea02d001c6633722c14643ec2a065fb4a977354ddbdf74282d076da77e530",
                "id": "4b42ce1e-9b98-4a25-b68e-fad13311eb65",
                "name": "Extract a DataFrame from a Dataset",
                "python_path": "d3m.primitives.data_transformation.dataset_to_dataframe.Common",
                "version": "0.3.0"
            },
            "type": "PRIMITIVE"
        },
        {
            "arguments": {
                "inputs": {
                    "data": "steps.0.produce",
                    "type": "CONTAINER"
                }
            },
            "hyperparams": {
                "columns": {
                    "data": [
                        1,
                        4
                    ],
                    "type": "VALUE"
                },
                "semantic_types": {
                    "data": [
                        "https://metadata.datadrivendiscovery.org/types/Attribute"
                    ],
                    "type": "VALUE"
                }
            },
            "outputs": [
                {
                    "id": "produce"
                }
            ],
            "primitive": {
                "digest": "bd1a17fce446bbf6a9c4331aa306b4d8f791510e515d8f4ae8084517ba444648",
                "id": "3002bc5b-fa47-4a3d-882e-a8b5f3d756aa",
                "name": "Remove semantic types from columns",
                "python_path": "d3m.primitives.data_transformation.remove_semantic_types.Common",
                "version": "0.1.0"
            },
            "type": "PRIMITIVE"
        },
        {
            "arguments": {
                "inputs": {
                    "data": "steps.1.produce",
                    "type": "CONTAINER"
                }
            },
            "hyperparams": {
                "semantic_types": {
                    "data": [
                        "https://metadata.datadrivendiscovery.org/types/Attribute"
                    ],
                    "type": "VALUE"
                }
            },
            "outputs": [
                {
                    "id": "produce"
                }
            ],
            "primitive": {
                "digest": "465edb8a31169e414dc8ad5b37c8c0bc07625aae9dc72fbfdc385ea10ed6d36f",
                "id": "4503a4c6-42f7-45a1-a1d4-ed69699cf5e1",
                "name": "Extracts columns by semantic type",
                "python_path": "d3m.primitives.data_transformation.extract_columns_by_semantic_types.Common",
                "version": "0.3.0"
            },
            "type": "PRIMITIVE"
        },
        {
            "arguments": {
                "inputs": {
                    "data": "steps.2.produce",
                    "type": "CONTAINER"
                }
            },
            "outputs": [
                {
                    "id": "produce"
                }
            ],
            "primitive": {
                "digest": "eb5dbe1ea5f37a394864ca802b93228333d60a1cd8f66901ccde8e1b71f98586",
                "id": "854727ed-c82c-3137-ac59-fd52bc9ba385",
                "name": "sklearn.preprocessing.data.RobustScaler",
                "python_path": "d3m.primitives.data_preprocessing.robust_scaler.SKlearn",
                "version": "2019.6.7"
            },
            "type": "PRIMITIVE"
        },
        {
            "arguments": {
                "inputs": {
                    "data": "steps.1.produce",
                    "type": "CONTAINER"
                }
            },
            "hyperparams": {
                "semantic_types": {
                    "data": [
                        "https://metadata.datadrivendiscovery.org/types/TrueTarget"
                    ],
                    "type": "VALUE"
                }
            },
            "outputs": [
                {
                    "id": "produce"
                }
            ],
            "primitive": {
                "digest": "465edb8a31169e414dc8ad5b37c8c0bc07625aae9dc72fbfdc385ea10ed6d36f",
                "id": "4503a4c6-42f7-45a1-a1d4-ed69699cf5e1",
                "name": "Extracts columns by semantic type",
                "python_path": "d3m.primitives.data_transformation.extract_columns_by_semantic_types.Common",
                "version": "0.3.0"
            },
            "type": "PRIMITIVE"
        },
        {
            "arguments": {
                "inputs": {
                    "data": "steps.3.produce",
                    "type": "CONTAINER"
                },
                "outputs": {
                    "data": "steps.4.produce",
                    "type": "CONTAINER"
                }
            },
            "hyperparams": {
                "nbins": {
                    "data": 2,
                    "type": "VALUE"
                }
            },
            "outputs": [
                {
                    "id": "produce"
                }
            ],
            "primitive": {
                "digest": "650ad1516621384d7717ffbef83a30097881df86edb7e869410ca70e715cf275",
                "id": "4d46e77b-9c29-4631-b382-02333e928f10",
                "name": "JMIplus_auto feature selector",
                "python_path": "d3m.primitives.feature_selection.joint_mutual_information.AutoRPI",
                "version": "v2019.11.10"
            },
            "type": "PRIMITIVE"
        },
        {
            "arguments": {
                "inputs": {
                    "data": "steps.5.produce",
                    "type": "CONTAINER"
                },
                "outputs": {
                    "data": "steps.4.produce",
                    "type": "CONTAINER"
                }
            },
            "hyperparams": {
                "n_estimators": {
                    "data": 25,
                    "type": "VALUE"
                }
            },
            "outputs": [
                {
                    "id": "produce"
                }
            ],
            "primitive": {
                "digest": "ed6db8e9f0b0525ef2be54988487b236c86b177703835e945af722190e45961c",
                "id": "c8a28f02-ef4a-35a8-87f1-cf79980f5c3e",
                "name": "sklearn.ensemble.forest.ExtraTreesClassifier",
                "python_path": "d3m.primitives.classification.extra_trees.SKlearn",
                "version": "2019.6.7"
            },
            "type": "PRIMITIVE"
        },
        {
            "arguments": {
                "inputs": {
                    "data": "steps.6.produce",
                    "type": "CONTAINER"
                },
                "reference": {
                    "data": "steps.0.produce",
                    "type": "CONTAINER"
                }
            },
            "outputs": [
                {
                    "id": "produce"
                }
            ],
            "primitive": {
                "digest": "5144bad4fea16168f6667c991e137067721dd0573c68ab1bf172ead9e2c82869",
                "id": "8d38b340-f83f-4877-baaa-162f8e551736",
                "name": "Construct pipeline predictions output",
                "python_path": "d3m.primitives.data_transformation.construct_predictions.Common",
                "version": "0.3.0"
            },
            "type": "PRIMITIVE"
        }
    ]
}