{
    "id": "f245c136-16a8-4c2a-b5bd-849fdb6f0ce9",
    "schema": "https://metadata.datadrivendiscovery.org/schemas/v0/pipeline.json",
    "created": "2019-06-17T20:58:24.283212Z",
    "inputs": [
        {
            "name": "inputs"
        }
    ],
    "outputs": [
        {
            "data": "steps.1.produce",
            "name": "output"
        }
    ],
    "steps": [
        {
            "type": "PRIMITIVE",
            "primitive": {
                "id": "ae0797506-ea7b-4a7f-a7e4-2f91e2082f05",
                "version": "0.1.0",
                "python_path": "d3m.primitives.data_transformation.load_graphs.DistilGraphLoader",
                "name": "Load graphs into a parseable object",
                "digest": "8a077a67eb0ceac60cddd9951a917cda2bddd8f85f071a8fa49e6a6784dff84b"
            },
            "arguments": {
                "inputs": {
                    "type": "CONTAINER",
                    "data": "inputs.0"
                }
            },
            "outputs": [
                {
                    "id": "produce"
                },
                {
                    "id": "produce_target"
                }
            ]
        },
        {
            "type": "PRIMITIVE",
            "primitive": {
                "id": "8baea8e6-9d3a-46d7-acf1-04fd593dcd37",
                "version": "0.1.0",
                "python_path": "d3m.primitives.data_transformation.seeded_graph_matcher.DistilSeededGraphMatcher",
                "name": "SeededGraphMatcher",
                "digest": "090a505b215c8abac056bd4a0eb08d676c1b809923f12632cccc95f9d6a5baf3"
            },
            "arguments": {
                "inputs": {
                    "type": "CONTAINER",
                    "data": "steps.0.produce"
                },
                "outputs": {
                    "type": "CONTAINER",
                    "data": "steps.0.produce_target"
                }
            },
            "outputs": [
                {
                    "id": "produce"
                }
            ],
            "hyperparams": {
                "metric": {
                    "type": "VALUE",
                    "data": "accuracy"
                }
            }
        }
    ],
    "digest": "c054ae28f71a3a0420824883e2b250a0ad7b1bdaefdbc6702e0bb991bd1488a3"
}
